
/*
bot.onText(/\/start/, function (msg) {
    var messageChatId = msg.chat.id;
    var messageText = msg.text;
    var messageDate = msg.date;
    var messageUsr = msg.from.username;
            var languageChoices =  {
                reply_markup: JSON.stringify({
                    keyboard: [
                        ['English'],
                        ['Suomi'],
                        ['Русский'],
                        ['Svenska']
                    ]
                })
            };
            bot.sendMessage(messageChatId, 'Choose language/Valitse kieli/Выбери язык/Välj språk', languageChoices);
            //this.language = languageChooser(messageText);
            console.log(messageText);
            bot.aMessage()
});
*/

/*
bot.on('text', function (msg) {
    var messageChatId = msg.chat.id;
    var messageText = msg.text;
    var messageDate = msg.date;
    var messageUsr = msg.from.username;
    this.language = languageChooser(messageText);
    console(messageText);
    // RegExp: /(English|Suomi|Русский|Svenska)/
});
*/
    /*
        if (messageText === '/start') {
            var languageChoices =  {
                reply_to_message_id: msg.message_id,
                reply_markup: JSON.stringify({
                    keyboard: [
                        ['English'],
                        ['Suomi'],
                        ['Русский'],
                        ['Svenska']
                    ]
                })
            };
            //bot.sendMessage(messageChatId, 'Choose language/Valitse kieli/Выбери язык/Välj språk', languageChoices);
            var language = languageChooser(messageText);
        }

        if ( messageText === '/keys' ) {
            sendMessageByBot(messageChatId, 'keys');
        
            var opts = {
                reply_to_message_id: msg.message_id,
                reply_markup: JSON.stringify({
                    keyboard: [
                        ['Find course'],
                        ['Find exam'],
                        ['Find party'],
                        ['Find food']
                        //[localization.findCourse[language]], [localization.findExam[language]], 
                        //[localization.findParty[language]], [localization.findFood[language]]
                    ]
                })
            };
            bot.sendMessage(messageChatId, 'Press the button', opts);
        
        } 

        if ( messageText === (messageText.match(/([Tt][Ii][Mm][Ee][Tt][Aa][Bb][Ll][Ee]|[Cc][Oo][Uu][Rr][Ss]([Ee]|[Ee][Ss]))/) || {}).input ) {
            sendMessageByBot(messageChatId, 'Timetable search');
        }

        if (messageText === (messageText.match(/[Ee][Xx][Aa]([Mm]|[Mm][Ss])/) || {}).input) {
            sendMessageByBot(messageChatId, 'Exam search');
        }

        if (messageText === (messageText.match(/([Ff][Oo][Oo][Dd]|[Ee][Aa][Tt]|[Aa][Tt][Ee])/) || {}).input) {
            sendMessageByBot(messageChatId, 'Mmm...delicious');
            //
            var opts2 = {
                reply_to_message_id: msg.message_id,
                reply_markup: JSON.stringify({
                    keyboard: [
                        ['Open Hours'],
                        ['Menu'],
                    ]
                })
            };
            //
        }

        if (messageText === (messageText.match(/([Pp][Aa]([Tt]|[Rr][Tt])([Yy]|[Ii][Ee][Ss]|[Ii])|[Rr][Ee][Ll][Aa][Xx])/) || {}).input) {
            sendMessageByBot(messageChatId, 'Party Hard!');

        }
        /*
        else {
            sendMessageByBot(messageChatId, 'I cannot understand you. Please say it again!');
        }
        */

    //console.log(msg);
    //console.log(language);


var opts = {
  reply_markup: JSON.stringify(
    {
      force_reply: true
    }
  )};
  
bot.sendMessage(user, 'How old are you?', opts)
  .then(function (sended) {
    var chatId = sended.chat.id;
    var messageId = sended.message_id;
    bot.onReplyToMessage(chatId, messageId, function (message) {
      console.log('User is %s years old', message.text);
    });
  });
